com/sifast/service/PostService.class
com/sifast/repository/PostCommentRepository.class
com/sifast/domain/User.class
com/sifast/config/SwaggerConfig.class
com/sifast/dto/VersionsDiffDTO.class
com/sifast/mapper/ProfileMapper.class
com/sifast/dto/ProfileDto.class
com/sifast/dto/PostDto.class
com/sifast/domain/PostComment.class
com/sifast/repository/ProfileRepository.class
com/sifast/web/ProfileController.class
com/sifast/web/PostCommentController.class
com/sifast/web/UserController.class
com/sifast/repository/UserRepository.class
com/sifast/domain/Post.class
com/sifast/domain/TimestampEntity.class
com/sifast/mapper/PostCommentMapper.class
com/sifast/AuditApplication.class
com/sifast/mapper/PostMapper.class
com/sifast/dto/UserDto.class
com/sifast/repository/PostRepository.class
com/sifast/web/PostController.class
com/sifast/dto/VersionDTO.class
com/sifast/domain/Groupe.class
com/sifast/mapper/UserMapper.class
com/sifast/service/UserService.class
com/sifast/mapper/ConfiguredModelMapper.class
com/sifast/dto/PostCommentDto.class
com/sifast/domain/Profile.class
com/sifast/service/AuditService.class
